{
  "project_info": {
    "project_number": "997789781282",
    "firebase_url": "https://reservation-1d176.firebaseio.com",
    "project_id": "reservation-1d176",
    "storage_bucket": "reservation-1d176.appspot.com"
  },
  "client": [
    {
      "client_info": {
        "mobilesdk_app_id": "1:997789781282:android:1bd830e4f64aac21",
        "android_client_info": {
          "package_name": "com.reservation"
        }
      },
      "oauth_client": [
        {
          "client_id": "997789781282-iavctujrlv290c36ae2tbgdava7srftd.apps.googleusercontent.com",
          "client_type": 1,
          "android_info": {
            "package_name": "com.reservation",
            "certificate_hash": "9cedc27137865b8f173002955da2e67a8a2b7af5"
          }
        },
        {
          "client_id": "997789781282-vmr50l2qt1t8jjknbiaagqkik23qi5q9.apps.googleusercontent.com",
          "client_type": 3
        }
      ],
      "api_key": [
        {
          "current_key": "AIzaSyCc84sIXuO2RB_CRqkAn3BD08i18UCLxN0"
        }
      ],
      "services": {
        "analytics_service": {
          "status": 1
        },
        "appinvite_service": {
          "status": 2,
          "other_platform_oauth_client": [
            {
              "client_id": "997789781282-vmr50l2qt1t8jjknbiaagqkik23qi5q9.apps.googleusercontent.com",
              "client_type": 3
            }
          ]
        },
        "ads_service": {
          "status": 2
        }
      }
    }
  ],
  "configuration_version": "1"
}